{
    "tiers": [{
        "groups": [{
            "num_to_select": 12,
            "trades": [
                
                // Trade: Wool -> 4 String
                {
                    "gives": [{
                        "item": "minecraft:string",
                        "quantity": 4
                    }],
                    "max_uses": 2147483647,
                    "reward_exp": false,
                    "trader_exp": 0,
                    "wants": [{
                        "item": "minecraft:wool",
                        "price_multiplier": 0,
                        "quantity": 1
                    }]
                },

                // Trade: 7 Iron Ingots -> Iron Horse Armor
                {
                    "gives": [{
                        "item": "minecraft:horsearmoriron",
                        "quantity": 1
                    }],
                    "max_uses": 2147483647,
                    "reward_exp": false,
                    "trader_exp": 0,
                    "wants": [{
                        "item": "minecraft:iron_ingot",
                        "price_multiplier": 0,
                        "quantity": 7
                    }]
                },

                // Trade: 7 Gold Ingots -> Gold Horse Armor
                {
                    "gives": [{
                        "item": "minecraft:horsearmorgold",
                        "quantity": 1
                    }],
                    "max_uses": 2147483647,
                    "reward_exp": false,
                    "trader_exp": 0,
                    "wants": [{
                        "item": "minecraft:gold_ingot",
                        "price_multiplier": 0,
                        "quantity": 7
                    }]
                },

                // Trade: 7 Diamonds -> Diamond Horse Armor
                {
                    "gives": [{
                        "item": "minecraft:horsearmordiamond",
                        "quantity": 1
                    }],
                    "max_uses": 2147483647,
                    "reward_exp": false,
                    "trader_exp": 0,
                    "wants": [{
                        "item": "minecraft:diamond",
                        "price_multiplier": 0,
                        "quantity": 7
                    }]
                },

                // Trade: 16 Phantom Membrane -> Elytra
                {
                    "gives": [{
                        "item": "minecraft:elytra",
                        "quantity": 1
                    }],
                    "max_uses": 2147483647,
                    "reward_exp": false,
                    "trader_exp": 0,
                    "wants": [{
                        "item": "minecraft:phantom_membrane",
                        "price_multiplier": 0,
                        "quantity": 16
                    }]
                },

                // Trade: 2 String + Paper -> Name Tag
                {
                    "gives": [{
                        "item": "minecraft:name_tag",
                        "quantity": 1
                    }],
                    "max_uses": 2147483647,
                    "reward_exp": false,
                    "trader_exp": 0,
                    "wants": [{
                            "item": "minecraft:string",
                            "price_multiplier": 0,
                            "quantity": 2
                        },
                        {
                            "item": "minecraft:paper",
                            "price_multiplier": 0,
                            "quantity": 1
                        }
                    ]
                },

                // Trade: Log -> 16 Paper
                {
                    "gives": [{
                        "item": "minecraft:paper",
                        "quantity": 16
                    }],
                    "max_uses": 2147483647,
                    "reward_exp": false,
                    "trader_exp": 0,
                    "wants": [{
                        "item": "minecraft:log",
                        "price_multiplier": 0,
                        "quantity": 1
                    }]
                },

                // Trade: Other Type of Log -> 16 Paper
                {
                    "gives": [{
                        "item": "minecraft:paper",
                        "quantity": 16
                    }],
                    "max_uses": 2147483647,
                    "reward_exp": false,
                    "trader_exp": 0,
                    "wants": [{
                        "item": "minecraft:log2",
                        "price_multiplier": 0,
                        "quantity": 1
                    }]
                },

                // Trade: 3 Leather + 2 Iron Nuggets -> Saddle
                {
                    "gives": [{
                        "item": "minecraft:saddle",
                        "quantity": 1
                    }],
                    "max_uses": 2147483647,
                    "reward_exp": false,
                    "trader_exp": 0,
                    "wants": [{
                            "item": "minecraft:leather",
                            "price_multiplier": 0,
                            "quantity": 3
                        },
                        {
                            "item": "minecraft:iron_nuggets",
                            "price_multiplier": 0,
                            "quantity": 2
                        }
                    ]
                },

                // Trade: Rotten Flesh -> Leather
                {
                    "gives": [{
                        "item": "minecraft:leather",
                        "quantity": 1
                    }],
                    "max_uses": 2147483647,
                    "reward_exp": false,
                    "trader_exp": 0,
                    "wants": [{
                        "item": "minecraft:rotten_flesh",
                        "price_multiplier": 0,
                        "quantity": 1
                    }]
                },

                // Trade: 4 Snow Blocks -> Ice
                {
                    "gives": [{
                        "item": "minecraft:ice",
                        "quantity": 1
                    }],
                    "max_uses": 2147483647,
                    "reward_exp": false,
                    "trader_exp": 0,
                    "wants": [{
                        "item": "minecraft:snow",
                        "price_multiplier": 0,
                        "quantity": 4
                    }]
                },

                // Trade: 2 Gold Ingots + 2 Sticks -> Bell
                {
                    "gives": [{
                        "item": "minecraft:bell",
                        "quantity": 1
                    }],
                    "max_uses": 2147483647,
                    "reward_exp": false,
                    "trader_exp": 0,
                    "wants": [{
                            "item": "minecraft:gold_ingot",
                            "price_multiplier": 0,
                            "quantity": 2
                        },
                        {
                            "item": "minecraft:stick",
                            "price_multiplier": 0,
                            "quantity": 2
                        }
                    ]
                }
            ]
        }],
        "total_exp_required": 0
    }]
}