{
    "tiers": [{
        "groups": [{
            "num_to_select": 27,
            // All spawn egg trades are 64 emeralds + 64 [item related to them]
            "trades": [

                // Trade: 64 Emeralds + 64 Feathers -> Chicken Spawn Egg
                {
                    "gives": [{
                        "item": "minecraft:spawn_egg:10",
                        "quantity": 1
                    }],
                    "max_uses": 2147483647,
                    "reward_exp": false,
                    "trader_exp": 0,
                    "wants": [{
                            "item": "minecraft:emerald",
                            "price_multiplier": 0,
                            "quantity": 64
                        },
                        {
                            "item": "minecraft:chicken",
                            "price_multiplier": 0,
                            "quantity": 64
                        }
                    ]
                },

                // Trade: 64 Emeralds + 64 Beef -> Cow Spawn Egg
                {
                    "gives": [{
                        "item": "minecraft:spawn_egg:11",
                        "quantity": 1
                    }],
                    "max_uses": 2147483647,
                    "reward_exp": false,
                    "trader_exp": 0,
                    "wants": [{
                            "item": "minecraft:emerald",
                            "price_multiplier": 0,
                            "quantity": 64
                        },
                        {
                            "item": "minecraft:beef",
                            "price_multiplier": 0,
                            "quantity": 64
                        }
                    ]
                },

                // Trade: 64 Emeralds + 64 Porkchops -> Pig Spawn Egg
                {
                    "gives": [{
                        "item": "minecraft:spawn_egg:12",
                        "quantity": 1
                    }],
                    "max_uses": 2147483647,
                    "reward_exp": false,
                    "trader_exp": 0,
                    "wants": [{
                            "item": "minecraft:emerald",
                            "price_multiplier": 0,
                            "quantity": 64
                        },
                        {
                            "item": "minecraft:porkchop",
                            "price_multiplier": 0,
                            "quantity": 64
                        }
                    ]
                },

                // Trade: 64 Emeralds + 64 Wool -> Sheep Spawn Egg
                {
                    "gives": [{
                        "item": "minecraft:spawn_egg:13",
                        "quantity": 1
                    }],
                    "max_uses": 2147483647,
                    "reward_exp": false,
                    "trader_exp": 0,
                    "wants": [{
                            "item": "minecraft:emerald",
                            "price_multiplier": 0,
                            "quantity": 64
                        },
                        {
                            "item": "minecraft:wool",
                            "price_multiplier": 0,
                            "quantity": 64
                        }
                    ]
                },

                // Trade: 64 Emeralds + 64 Bone Blocks -> Wolf Spawn Egg
                {
                    "gives": [{
                        "item": "minecraft:spawn_egg:14",
                        "quantity": 1
                    }],
                    "max_uses": 2147483647,
                    "reward_exp": false,
                    "trader_exp": 0,
                    "wants": [{
                            "item": "minecraft:emerald",
                            "price_multiplier": 0,
                            "quantity": 64
                        },
                        {
                            "item": "minecraft:bone_block",
                            "price_multiplier": 0,
                            "quantity": 64
                        }
                    ]
                },

                // Trade: 64 Emeralds + 64 Emerald Blocks -> Villager Spawn Egg
                {
                    "gives": [{
                        "item": "minecraft:spawn_egg:15",
                        "quantity": 1
                    }],
                    "max_uses": 2147483647,
                    "reward_exp": false,
                    "trader_exp": 0,
                    "wants": [{
                            "item": "minecraft:emerald",
                            "price_multiplier": 0,
                            "quantity": 64
                        },
                        {
                            "item": "minecraft:emerald_block",
                            "price_multiplier": 0,
                            "quantity": 64
                        }
                    ]
                },

                // Trade: 64 Emeralds + 64 Red Mushrooms -> Mooshroom Spawn Egg
                {
                    "gives": [{
                        "item": "minecraft:spawn_egg:16",
                        "quantity": 1
                    }],
                    "max_uses": 2147483647,
                    "reward_exp": false,
                    "trader_exp": 0,
                    "wants": [{
                            "item": "minecraft:emerald",
                            "price_multiplier": 0,
                            "quantity": 64
                        },
                        {
                            "item": "minecraft:red_mushroom",
                            "price_multiplier": 0,
                            "quantity": 64
                        }
                    ]
                },

                // Trade: 64 Emeralds + 64 Ink Sacs -> Squid Spawn Egg
                {
                    "gives": [{
                        "item": "minecraft:spawn_egg:17",
                        "quantity": 1
                    }],
                    "max_uses": 2147483647,
                    "reward_exp": false,
                    "trader_exp": 0,
                    "wants": [{
                            "item": "minecraft:emerald",
                            "price_multiplier": 0,
                            "quantity": 64
                        },
                        {
                            "item": "minecraft:dye:0",
                            "price_multiplier": 0,
                            "quantity": 64
                        }
                    ]
                },

                // Trade: 64 Emeralds + 64 Rabbit Hide -> Rabbit Spawn Egg
                {
                    "gives": [{
                        "item": "minecraft:spawn_egg:18",
                        "quantity": 1
                    }],
                    "max_uses": 2147483647,
                    "reward_exp": false,
                    "trader_exp": 0,
                    "wants": [{
                            "item": "minecraft:emerald",
                            "price_multiplier": 0,
                            "quantity": 64
                        },
                        {
                            "item": "minecraft:rabbit_hide",
                            "price_multiplier": 0,
                            "quantity": 64
                        }
                    ]
                },

                // Trade: 64 Emeralds + 64 Stone -> Bat Spawn Egg
                {
                    "gives": [{
                        "item": "minecraft:spawn_egg:19",
                        "quantity": 1
                    }],
                    "max_uses": 2147483647,
                    "reward_exp": false,
                    "trader_exp": 0,
                    "wants": [{
                            "item": "minecraft:emerald",
                            "price_multiplier": 0,
                            "quantity": 64
                        },
                        {
                            "item": "minecraft:stone",
                            "price_multiplier": 0,
                            "quantity": 64
                        }
                    ]
                },

                // Trade: 64 Emeralds + 64 Iron Blocks -> Iron Golem Spawn Egg
                {
                    "gives": [{
                        "item": "minecraft:spawn_egg:20",
                        "quantity": 1
                    }],
                    "max_uses": 2147483647,
                    "reward_exp": false,
                    "trader_exp": 0,
                    "wants": [{
                            "item": "minecraft:emerald",
                            "price_multiplier": 0,
                            "quantity": 64
                        },
                        {
                            "item": "minecraft:iron_block",
                            "price_multiplier": 0,
                            "quantity": 64
                        }
                    ]
                },

                // Trade: 64 Emeralds + 64 Blue Ice -> Snow Golem Spawn Egg
                {
                    "gives": [{
                        "item": "minecraft:spawn_egg:21",
                        "quantity": 1
                    }],
                    "max_uses": 2147483647,
                    "reward_exp": false,
                    "trader_exp": 0,
                    "wants": [{
                            "item": "minecraft:emerald",
                            "price_multiplier": 0,
                            "quantity": 64
                        },
                        {
                            "item": "minecraft:blue_ice",
                            "price_multiplier": 0,
                            "quantity": 64
                        }
                    ]
                },

                // Trade: 64 Emeralds + 64 Cocoa Beans -> Ocelot Spawn Egg
                {
                    "gives": [{
                        "item": "minecraft:spawn_egg:22",
                        "quantity": 1
                    }],
                    "max_uses": 2147483647,
                    "reward_exp": false,
                    "trader_exp": 0,
                    "wants": [{
                            "item": "minecraft:emerald",
                            "price_multiplier": 0,
                            "quantity": 64
                        },
                        {
                            "item": "minecraft:dye:3",
                            "price_multiplier": 0,
                            "quantity": 64
                        }
                    ]
                },

                // Trade: 64 Emeralds + 64 Leather -> Horse Spawn Egg
                {
                    "gives": [{
                        "item": "minecraft:spawn_egg:23",
                        "quantity": 1
                    }],
                    "max_uses": 2147483647,
                    "reward_exp": false,
                    "trader_exp": 0,
                    "wants": [{
                            "item": "minecraft:emerald",
                            "price_multiplier": 0,
                            "quantity": 64
                        },
                        {
                            "item": "minecraft:leather",
                            "price_multiplier": 0,
                            "quantity": 64
                        }
                    ]
                },

                // Trade: 64 Emeralds + 64 Chests -> Donkey Spawn Egg
                {
                    "gives": [{
                        "item": "minecraft:spawn_egg:24",
                        "quantity": 1
                    }],
                    "max_uses": 2147483647,
                    "reward_exp": false,
                    "trader_exp": 0,
                    "wants": [{
                            "item": "minecraft:emerald",
                            "price_multiplier": 0,
                            "quantity": 64
                        },
                        {
                            "item": "minecraft:chest",
                            "price_multiplier": 0,
                            "quantity": 64
                        }
                    ]
                },

                // Trade: 64 Emeralds + 64 Trapped Chests -> Mule Spawn Egg
                {
                    "gives": [{
                        "item": "minecraft:spawn_egg:25",
                        "quantity": 1
                    }],
                    "max_uses": 2147483647,
                    "reward_exp": false,
                    "trader_exp": 0,
                    "wants": [{
                            "item": "minecraft:emerald",
                            "price_multiplier": 0,
                            "quantity": 64
                        },
                        {
                            "item": "minecraft:trapped_chest",
                            "price_multiplier": 0,
                            "quantity": 64
                        }
                    ]
                },

                // Trade: Horse Spawn Egg + 64 Bones -> Skeleton Horse Spawn Egg
                {
                    "gives": [{
                        "item": "minecraft:spawn_egg:26",
                        "quantity": 1
                    }],
                    "max_uses": 2147483647,
                    "reward_exp": false,
                    "trader_exp": 0,
                    "wants": [{
                            "item": "minecraft:spawn_egg:23",
                            "price_multiplier": 0,
                            "quantity": 1
                        },
                        {
                            "item": "minecraft:bone",
                            "price_multiplier": 0,
                            "quantity": 64
                        }
                    ]
                },

                // Trade: Horse Spawn Egg + 64 Rotten Flesh -> Zombie Horse Spawn Egg
                {
                    "gives": [{
                        "item": "minecraft:spawn_egg:27",
                        "quantity": 1
                    }],
                    "max_uses": 2147483647,
                    "reward_exp": false,
                    "trader_exp": 0,
                    "wants": [{
                            "item": "minecraft:spawn_egg:23",
                            "price_multiplier": 0,
                            "quantity": 1
                        },
                        {
                            "item": "minecraft:rotten_flesh",
                            "price_multiplier": 0,
                            "quantity": 64
                        }
                    ]
                },

                // Trade: 64 Emeralds + 64 Carpets -> Llama Spawn Egg
                {
                    "gives": [{
                        "item": "minecraft:spawn_egg:29",
                        "quantity": 1
                    }],
                    "max_uses": 2147483647,
                    "reward_exp": false,
                    "trader_exp": 0,
                    "wants": [{
                            "item": "minecraft:emerald",
                            "price_multiplier": 0,
                            "quantity": 64
                        },
                        {
                            "item": "minecraft:carpet",
                            "price_multiplier": 0,
                            "quantity": 64
                        }
                    ]
                },

                // Trade: 64 Emeralds + 64 Cookies -> Parrot Spawn Egg
                {
                    "gives": [{
                        "item": "minecraft:spawn_egg:30",
                        "quantity": 1
                    }],
                    "max_uses": 2147483647,
                    "reward_exp": false,
                    "trader_exp": 0,
                    "wants": [{
                            "item": "minecraft:emerald",
                            "price_multiplier": 0,
                            "quantity": 64
                        },
                        {
                            "item": "minecraft:cookie",
                            "price_multiplier": 0,
                            "quantity": 64
                        }
                    ]
                },

                // Trade: 64 Emeralds + 64 Cooked Salmon -> Dolphin Spawn Egg
                {
                    "gives": [{
                        "item": "minecraft:spawn_egg:31",
                        "quantity": 1
                    }],
                    "max_uses": 2147483647,
                    "reward_exp": false,
                    "trader_exp": 0,
                    "wants": [{
                            "item": "minecraft:emerald",
                            "price_multiplier": 0,
                            "quantity": 64
                        },
                        {
                            "item": "minecraft:cooked_salmon",
                            "price_multiplier": 0,
                            "quantity": 64
                        }
                    ]
                },

                // Trade: 64 Emeralds + 64 Scutes -> Turtle Spawn Egg
                {
                    "gives": [{
                        "item": "minecraft:spawn_egg:74",
                        "quantity": 1
                    }],
                    "max_uses": 2147483647,
                    "reward_exp": false,
                    "trader_exp": 0,
                    "wants": [{
                            "item": "minecraft:emerald",
                            "price_multiplier": 0,
                            "quantity": 64
                        },
                        {
                            "item": "minecraft:turtle_shell_piece",
                            "price_multiplier": 0,
                            "quantity": 64
                        }
                    ]
                },

                // Trade: 64 Emeralds + 64 Cooked Cod -> Cat Spawn Egg
                {
                    "gives": [{
                        "item": "minecraft:spawn_egg:75",
                        "quantity": 1
                    }],
                    "max_uses": 2147483647,
                    "reward_exp": false,
                    "trader_exp": 0,
                    "wants": [{
                            "item": "minecraft:emerald",
                            "price_multiplier": 0,
                            "quantity": 64
                        },
                        {
                            "item": "minecraft:cooked_fish",
                            "price_multiplier": 0,
                            "quantity": 64
                        }
                    ]
                },

                // Trade: 64 Emeralds + 64 Scaffolding -> Panda Spawn Egg
                {
                    "gives": [{
                        "item": "minecraft:spawn_egg:113",
                        "quantity": 1
                    }],
                    "max_uses": 2147483647,
                    "reward_exp": false,
                    "trader_exp": 0,
                    "wants": [{
                            "item": "minecraft:emerald",
                            "price_multiplier": 0,
                            "quantity": 64
                        },
                        {
                            "item": "minecraft:scaffolding",
                            "price_multiplier": 0,
                            "quantity": 64
                        }
                    ]
                },

                // Trade: 64 Emeralds + 64 Emeralds -> Wandering Trader Spawn Egg
                {
                    "gives": [{
                        "item": "minecraft:spawn_egg:118",
                        "quantity": 1
                    }],
                    "max_uses": 2147483647,
                    "reward_exp": false,
                    "trader_exp": 0,
                    "wants": [{
                            "item": "minecraft:emerald",
                            "price_multiplier": 0,
                            "quantity": 64
                        },
                        {
                            "item": "minecraft:emerald",
                            "price_multiplier": 0,
                            "quantity": 64
                        }
                    ]
                },

                // Trade: 64 Emeralds + 64 Sweet Berries -> Fox Spawn Egg
                {
                    "gives": [{
                        "item": "minecraft:spawn_egg:121",
                        "quantity": 1
                    }],
                    "max_uses": 2147483647,
                    "reward_exp": false,
                    "trader_exp": 0,
                    "wants": [{
                            "item": "minecraft:emerald",
                            "price_multiplier": 0,
                            "quantity": 64
                        },
                        {
                            "item": "minecraft:sweet_berries",
                            "price_multiplier": 0,
                            "quantity": 64
                        }
                    ]
                },

                // Trade: 64 Emeralds + 64 Honey Blocks -> Bee Spawn Egg
                {
                    "gives": [{
                        "item": "minecraft:spawn_egg:122",
                        "quantity": 1
                    }],
                    "max_uses": 2147483647,
                    "reward_exp": false,
                    "trader_exp": 0,
                    "wants": [{
                            "item": "minecraft:emerald",
                            "price_multiplier": 0,
                            "quantity": 64
                        },
                        {
                            "item": "minecraft:honey_block",
                            "price_multiplier": 0,
                            "quantity": 64
                        }
                    ]
                }
            ]
        }],
        "total_exp_required": 0
    }]
}